{
  "swagger": "2.0",
  "info": {
    "description": "ini deskripsi",
    "version": "1.0.0",
    "title": "Swagger Challenge 8"
  },
  "host": "localhost:5000",
  "basePath": "/api",
  "tags": [
    {
      "name": "players",
      "description": "Everything about your players"
    }
  ],
  "schemes": [
    "http"
  ],
  "paths": {
    "/players": {
      "post": {
        "tags": [
          "players"
        ],
        "summary": "Add a new",
        "description": "",
        "operationId": "addPlayer",
        "consumes": [
          "application/json"
        ],
        "produces": [
          "application/json"
        ],
        "parameters": [
          {
            "in": "body",
            "name": "body",
            "description": "player object that needs to be added to the store",
            "required": true,
            "schema": {
              "$ref": "#/definitions/Player"
            }
          }
        ],
        "responses": {
          "201": {
            "description": "SUCCESS"
          },
          "400": {
            "description": "username or email or password field cannot be empty."
          },
          "500": {
            "description": "Some error occurred while creating the Player."
          }
        }
      },
      "get": {
        "tags": [
          "players"
        ],
        "summary": "Get all an existing player",
        "description": "",
        "operationId": "getAllPet",
        "consumes": [
          "application/json"
        ],
        "produces": [
          "application/json"
        ],
        "parameters": [
          {
            "in": "body",
            "name": "body",
            "description": "player object that needs to be added to the store",
            "required": true,
            "schema": {
              "$ref": "#/definitions/Player"
            }
          }
        ],
        "responses": {
          "200": {
            "description": "SUCCESS"
          },
          "500": {
            "description": "Some error occurred while retrieving players."
          }
        }
      }
    },
    "/players/{playerId}": {
      "get": {
        "tags": [
          "players"
        ],
        "summary": "Find player by ID",
        "description": "Returns a single player",
        "operationId": "getPlayerById",
        "produces": [
          "application/json"
        ],
        "parameters": [
          {
            "name": "playerId",
            "in": "path",
            "description": "ID of player to return",
            "required": true,
            "type": "integer",
            "format": "int64"
          }
        ],
        "responses": {
          "200": {
            "description": "SUCCESS",
            "schema": {
              "$ref": "#/definitions/Player"
            }
          },
          "500": {
            "description": "Error retrieving Player with id=0"
          }
        }
      },
      "put": {
        "tags": [
          "players"
        ],
        "summary": "Update player",
        "description": "Returns a single player",
        "operationId": "updatePlayerById",
        "produces": [
          "application/json"
        ],
        "parameters": [
          {
            "name": "playerId",
            "in": "path",
            "description": "ID of player to return",
            "required": true,
            "type": "integer",
            "format": "int64"
          }
        ],
        "responses": {
          "200": {
            "description": "Player was updated successfully.",
            "schema": {
              "$ref": "#/definitions/Player"
            }
          },
          "400": {
            "description": "Cannot update Player with id=0. Maybe Player was not found or req.body is empty!"
          },
          "500": {
            "description": "Error updating Player with id=0"
          }
        }
      },
      "delete": {
        "tags": [
          "players"
        ],
        "summary": "Delete a player",
        "description": "",
        "operationId": "deletePlayer",
        "produces": [
          "application/json"
        ],
        "parameters": [
          {
            "name": "playerId",
            "in": "path",
            "description": "player id to delete",
            "required": true,
            "type": "integer",
            "format": "int64"
          }
        ],
        "responses": {
          "200": {
            "description": "Player was deleted successfully!"
          },
          "400": {
            "description": "Cannot delete Player with id=0. Maybe Player was not found!"
          },
          "500": {
            "description": "Could not delete Player with id==0"
          }
        }
      }
    },
    "/players/exp/{playerId}": {
      "post": {
        "tags": [
          "players"
        ],
        "summary": "Add a exp player",
        "description": "",
        "operationId": "addExpPlayer",
        "consumes": [
          "application/json"
        ],
        "produces": [
          "application/json"
        ],
        "parameters": [
          {
            "name": "playerId",
            "in": "path",
            "description": "ID of player to return",
            "required": true,
            "type": "integer",
            "format": "int64"
          }
        ],
        "responses": {
          "200": {
            "description": "Player with id=0 has more experience."
          },
          "400": {
            "description": "exp field cannot be empty. or Cannot update Player with id=0!"
          },
          "500": {
            "description": "Error updating Player exp with id=0"
          }
        }
      }
    }
  },
  "definitions": {
    "Player": {
      "type": "object",
      "required": [
        "username",
        "email",
        "password"
      ],
      "properties": {
        "id": {
          "type": "integer"
        },
        "username": {
          "type": "string",
          "example": "hai"
        },
        "email": {
          "type": "string",
          "example": "hai@email.com"
        },
        "password": {
          "type": "string",
          "example": "hai123"
        },
        "experience": {
          "type": "integer",
          "example": 70
        },
        "lvl": {
          "type": "integer",
          "example": 5
        }
      },
      "xml": {
        "name": "Pet"
      }
    },
    "ApiResponse": {
      "type": "object",
      "properties": {
        "result": {
          "type": "string"
        },
        "message": {
          "type": "string"
        }
      }
    }
  }
}